^D:\PROJECTS\TESTS\C++SAMPLES\BE3DGCODECIRCLES\CIRCLER\RELEASE\CIRCLER.OBJ|D:\PROJECTS\TESTS\C++SAMPLES\BE3DGCODECIRCLES\CIRCLER\RELEASE\STDAFX.OBJ
D:\PROJECTS\TESTS\C++SAMPLES\BE3DGCODECIRCLES\RELEASE\CIRCLER.EXE
D:\PROJECTS\TESTS\C++SAMPLES\BE3DGCODECIRCLES\RELEASE\CIRCLER.IPDB
D:\PROJECTS\TESTS\C++SAMPLES\BE3DGCODECIRCLES\RELEASE\CIRCLER.IOBJ
D:\PROJECTS\TESTS\C++SAMPLES\BE3DGCODECIRCLES\RELEASE\CIRCLER.PDB
