^D:\PROJECTS\TESTS\C++SAMPLES\BE3DGCODECIRCLES\CONSOLEAPPLICATION1\STDAFX.CPP
D:\PROJECTS\TESTS\C++SAMPLES\BE3DGCODECIRCLES\CONSOLEAPPLICATION1\DEBUG\CONSOLEAPPLICATION1.PCH
D:\PROJECTS\TESTS\C++SAMPLES\BE3DGCODECIRCLES\CONSOLEAPPLICATION1\DEBUG\VC140.PDB
D:\PROJECTS\TESTS\C++SAMPLES\BE3DGCODECIRCLES\CONSOLEAPPLICATION1\DEBUG\VC140.IDB
D:\PROJECTS\TESTS\C++SAMPLES\BE3DGCODECIRCLES\CONSOLEAPPLICATION1\DEBUG\STDAFX.OBJ
^D:\PROJECTS\TESTS\C++SAMPLES\BE3DGCODECIRCLES\CONSOLEAPPLICATION1\CONSOLEAPPLICATION1.CPP
D:\PROJECTS\TESTS\C++SAMPLES\BE3DGCODECIRCLES\CONSOLEAPPLICATION1\DEBUG\VC140.PDB
D:\PROJECTS\TESTS\C++SAMPLES\BE3DGCODECIRCLES\CONSOLEAPPLICATION1\DEBUG\VC140.IDB
D:\PROJECTS\TESTS\C++SAMPLES\BE3DGCODECIRCLES\CONSOLEAPPLICATION1\DEBUG\CONSOLEAPPLICATION1.OBJ
