^D:\PROJECTS\TESTS\C++SAMPLES\BE3DGCODECIRCLES\CONSOLEAPPLICATION1\STDAFX.CPP
/c /ZI /nologo /W3 /WX- /Od /Oy- /D WIN32 /D _DEBUG /D _CONSOLE /D _UNICODE /D UNICODE /Gm /EHsc /RTC1 /MDd /GS /fp:precise /Zc:wchar_t /Zc:forScope /Zc:inline /Yc"stdafx.h" /Fp"DEBUG\CIRCLERAPP.PCH" /Fo"DEBUG\\" /Fd"DEBUG\VC140.PDB" /Gd /TP /analyze- D:\PROJECTS\TESTS\C++SAMPLES\BE3DGCODECIRCLES\CONSOLEAPPLICATION1\STDAFX.CPP
^D:\PROJECTS\TESTS\C++SAMPLES\BE3DGCODECIRCLES\CONSOLEAPPLICATION1\CONSOLEAPPLICATION1.CPP
/c /ZI /nologo /W3 /WX- /Od /Oy- /D WIN32 /D _DEBUG /D _CONSOLE /D _UNICODE /D UNICODE /Gm /EHsc /RTC1 /MDd /GS /fp:precise /Zc:wchar_t /Zc:forScope /Zc:inline /Fo"DEBUG\\" /Fd"DEBUG\VC140.PDB" /Gd /TP /analyze- D:\PROJECTS\TESTS\C++SAMPLES\BE3DGCODECIRCLES\CONSOLEAPPLICATION1\CONSOLEAPPLICATION1.CPP
